[
  {
    "name": "Welcome",
    "settings": [
      {
        "type": "paragraph",
        "content": "Theme settings allow designers to provide an easy way for any user to customize the look and feel of their shop without having to delve into HTML or CSS code. Please see our [help page on theme settings](http:\/\/docs.shopify.com\/themes\/theme-templates\/settings) to learn more about how you can make your theme customizable."
      }
    ]
  },
  {
    "name": "General",
    "settings": [
      {
        "content": "WordPress",
        "type": "header"
      },
      {
        "label": "Website URL",
        "type": "url",
        "id": "general--wordpress-url"
      }
    ]
  }
]