<?xml version="1.0" encoding="utf-8"?>
<!-- Generator: Adobe Illustrator 24.0.1, SVG Export Plug-In . SVG Version: 6.00 Build 0)  -->
<svg version="1.1" id="Artwork" xmlns="http://www.w3.org/2000/svg" xmlns:xlink="http://www.w3.org/1999/xlink" x="0px" y="0px"
	 viewBox="0 0 120 120" style="enable-background:new 0 0 120 120;" xml:space="preserve">
<style type="text/css">
	.st0{fill:#282524;}
</style>
<polyline class="st0" points="56.1,64.6 21,64.6 21,55.4 56.1,55.4 64.1,55.4 99,55.4 99,64.6 64.1,64.6 "/>
<title>BARBER-web-content-ui-icon-quantity-decrease-xs-dark-grey</title>
</svg>
